Predicting And Mapping Arrest Types in Chicago
…
The modeling

Before we start we should set a benchmark for ourselves. If our model is not more accurate than a benchmark, then our fancy modeling is all for naught. Let’s look at the arrest type that happens most often

df_index %>% group_by(Index) %>%
  summarize(Total = n()) %>%
  arrange(desc(Total))

## # A tibble: 26 x 2
##    Index  Total
##    <int>  <int>
##  1     6 347194
##  2     0 137295
##  3     2 132505
##  4     8  94722
##  5     9  35259
##  6     4  32963
##  7    19  29590
##  8     1  28479
##  9     5  27889
## 10    14  20332
## # ... with 16 more rows
…
